{
    "properties": {
        "icao24": {
            "type": "text"
        },
        "callsign": {
            "type": "text"
        },
        "origin_country": {
            "type": "text"
        },
        "time_position": {
            "type": "integer"
        },
        "last_contact": {
            "type": "integer"
        },
        "longitude": {
            "type": "float"
        },
        "latitude": {
            "type": "float"
        },
        "baro_altitude": {
            "type": "float"
        },
        "on_ground": {
            "type": "boolean"
        },
        "velocity": {
            "type": "float"
        },
        "true_track": {
            "type": "float"
        },
        "vertical_rate": {
            "type": "float"
        },
        "geo_altitude": {
            "type": "float"
        },
        "squawk": {
            "type": "text"
        },
        "spi": {
            "type": "boolean"
        },
        "position_source": {
            "type": "integer"
        },
        "allStates": {
            "type": null
        }
    }
}



// esp55_state_vector_schema
{
    "type": "record",
    "name": "esp55_state_vector",
    "doc": "ESP55 Planjane StateVector",
    "namespace": "ua.pt",
    "fields": [
        {
            "name": "icao24",
            "type": "string"
        },
        {
            "name": "callsign",
            "type": "string"
        },
        {
            "name": "origin_country",
            "type": "string"
        },
        {
            "name": "time_position",
            "type": "int"
        },
        {
            "name": "last_contact",
            "type": "int"
        },
        {
            "name": "longitude",
            "type": "float"
        },
        {
            "name": "latitude",
            "type": "float"
        },
        {
            "name": "baro_altitude",
            "type": "float"
        },
        {
            "name": "on_ground",
            "type": "boolean"
        },
        {
            "name": "velocity",
            "type": "float"
        },
        {
            "name": "true_track",
            "type": "float"
        },
        {
            "name": "vertical_rate",
            "type": "float"
        },
        {
            "name": "geo_altitude",
            "type": "float"
        },
        {
            "name": "squawk",
            "type": "string"
        },
        {
            "name": "spi",
            "type": "boolean"
        },
        {
            "name": "position_source",
            "type": "int"
        },
        {
            "name": "allStates",
            "type": "string"
        }
    ]
}

input {
    kafka {
        bootstrap_servers => "192.168.160.103:9092"
        topics => ["esp55_logs"]
    }
}

output {
    elasticsearch {
        hosts => ["192.168.160.103:9200"]
        user => "elastic"
        password => "hLbe87klIkpL3n1jmtRp"
        index => "esp55_logs-%{+YYYY.MM.dd}"
        workers => 1
    }
}



# SELECT 
#      table_schema as `Database`, 
#      table_name AS `Table`, 
#      round(((data_length + index_length) / 1024 / 1024), 2) `Size in MB` 
# FROM information_schema.TABLES 
# ORDER BY (data_length + index_length) DESC;

// StateVectorPosition- icao, 34.5, 45.6
        mutate {
            convert => {
                "[location][lat]" => "float"
                "[location][lon]" => "float" 
            }
       }

       lat:%{DATA:latitude}, lon:%{DATA:longitude} <------
       "latitude": 34.06691243701163,
        "longitude": -81.15418291973535,


input {
    kafka {
        bootstrap_servers => "192.168.160.103:9092"
        topics => ["esp55_logs"]
    }
}

filter {
    if [message] =~ "StateVectorPosition-.*" {
        grok {
            match => { "message" => "%{WORD:type}-%{WORD:icao24} %{NUMBER:latitude} %{NUMBER:longitude}" }
        }
        mutate {
            add_field => { 
                "[location][lat]" => "%{latitude}" 
                "[location][lon]" => "%{longitude}"
            }
        }        
        mutate {
            convert => {
                "[location][lat]" => "float"
                "[location][lon]" => "float" 
            }
        }
    }
}

output {
    elasticsearch {
        hosts => ["192.168.160.103:9200"]
        user => "elastic"
        password => "hLbe87klIkpL3n1jmtRp"
        index => "esp55_logs"
        workers => 1
    }
}




{
  "mapping": {
    "_doc": {
      "properties": {
        "@timestamp": {
          "type": "date"
        },
        "@version": {
          "type": "text",
          "fields": {
            "keyword": {
              "type": "keyword",
              "ignore_above": 256
            }
          }
        },
        "geoip": {
          "properties": {
            "location": {
              "type": "text",
              "fields": {
                "keyword": {
                  "type": "keyword",
                  "ignore_above": 256
                }
              }
            }
          }
        },
        "icao24": {
          "type": "text",
          "fields": {
            "keyword": {
              "type": "keyword",
              "ignore_above": 256
            }
          }
        },
        "latitude": {
          "type": "text",
          "fields": {
            "keyword": {
              "type": "keyword",
              "ignore_above": 256
            }
          }
        },
        "location": {
          "properties": {
            "lat": {
              "type": "float"
            },
            "lon": {
              "type": "float"
            }
          }
        },
        "longitude": {
          "type": "text",
          "fields": {
            "keyword": {
              "type": "keyword",
              "ignore_above": 256
            }
          }
        },
        "message": {
          "type": "text",
          "fields": {
            "keyword": {
              "type": "keyword",
              "ignore_above": 256
            }
          }
        },
        "type": {
          "type": "text",
          "fields": {
            "keyword": {
              "type": "keyword",
              "ignore_above": 256
            }
          }
        }
      }
    }
  }
}



"properties": {
    "@timestamp": {
        "type": "date"
    },
    "@version": {
        "type": "text",
        "fields": {
        "keyword": {
            "type": "keyword",
            "ignore_above": 256
        }
        }
    },
    "geoip": {
        "properties": {
        "location": {
            "type": "text",
            "fields": {
            "keyword": {
                "type": "keyword",
                "ignore_above": 256
            }
            }
        }
        }
    },
    "icao24": {
        "type": "text",
        "fields": {
        "keyword": {
            "type": "keyword",
            "ignore_above": 256
        }
        }
    },
    "latitude": {
        "type": "text",
        "fields": {
        "keyword": {
            "type": "keyword",
            "ignore_above": 256
        }
        }
    },
    "location": {
        "properties": {
        "lat": {
            "type": "float"
        },
        "lon": {
            "type": "float"
        }
        }
    },
    "longitude": {
        "type": "text",
        "fields": {
        "keyword": {
            "type": "keyword",
            "ignore_above": 256
        }
        }
    },
    "message": {
        "type": "text",
        "fields": {
        "keyword": {
            "type": "keyword",
            "ignore_above": 256
        }
        }
    },
    "type": {
        "type": "text",
        "fields": {
        "keyword": {
            "type": "keyword",
            "ignore_above": 256
        }
        }
    }
}




"properties": {
  "@timestamp": {
    "type": "date"
  },
  "@version": {
    "type": "text",
    "fields": {
      "keyword": {
        "type": "keyword",
        "ignore_above": 256
      }
    }
  },
  "icao24": {
    "type": "text",
    "fields": {
      "keyword": {
        "type": "keyword",
        "ignore_above": 256
      }
    }
  },
  "latitude": {
    "type": "text",
    "fields": {
      "keyword": {
        "type": "keyword",
        "ignore_above": 256
      }
    }
  },
  "location": {
    "properties": {
      "type": "geo_point"
    }
  },
  "longitude": {
    "type": "text",
    "fields": {
      "keyword": {
        "type": "keyword",
        "ignore_above": 256
      }
    }
  },
  "message": {
    "type": "text",
    "fields": {
      "keyword": {
        "type": "keyword",
        "ignore_above": 256
      }
    }
  },
  "type": {
    "type": "text",
    "fields": {
      "keyword": {
        "type": "keyword",
        "ignore_above": 256
      }
    }
  }
}
